{


    "appName": {
        "message": "Ein-Klick-Herunterlader"
    },
     "appNameShort": {
        "message": "Ein-Klick-DL"
    },
    "appDesc": {
        "message": "Bilder von Ein-Klick-Bilderhostern herunterladen, ohne externe Tools oder Drittanbietersoftware nutzen zu müssen."
    },




    "optionsTitle": {
        "message": "Optionen für den Ein-Klick-Herunterlader"
    },

    "hostersHeader": {
        "message": "Unterstützte Hoster in dieser Version"
    },

    "hostersTableName": {
        "message": "Name"
    },

    "hostersTableHostname": {
        "message": "Hostname"
    },

    "hostersTableAuthor": {
        "message": "Autor"
    },

    "hostersTableModified": {
        "message": "Aktualisiert"
    },

   "listHostersButton": {
        "message": "Hoster auflisten"
    },

    "customHostersButton": {
        "message": "Eigene Hoster"
    },

   "backToOptionsButton": {
        "message": "Zurück zu den Optionen"
    },




    "optionsPath": {
        "message": "Vordefinierter Zielpfad"
    },

    "optionsDownloadPathNone": {
        "message": "Ins Standardverzeichnis herunterladen"
    },

    "optionsDownloadCustomPathNote": {
        "message": "Relativ zum Standardverzeichnis. Kein „../“ verwenden"
    },

    "optionsDownloadPathRequest": {
        "message": "Für jeden Durchlauf ein Eingabefeld für den Pfad anzeigen"
    },




    "optionsStartupBehavior": {
        "message": "Startverhalten"
    },

    "optionsStartupBehaviorDefault": {
        "message": "„App-Ähnlicher“ Start ohne irgendwelche Vorauswahlen"
    },

    "optionsStartupBehaviorCurrent": {
        "message": "Beim Starten wird das aktuelle Tab vorausgewählt"
    },

    "optionsStartupBehaviorLinks": {
        "message": "Es werden direkt die Links des aktuellen Tabs gezeigt"
    },




    "optionsSchemas": {
        "message": "Vordefinierte Vorlagen"
    },

    "optionsFilenameSchemaInfo": {
        "message": "Dateinamensvorlage"
    },




    "optionsSave": {
        "message": "Optionen speichern"
    },

    "optionsReset": {
        "message": "Optionen zurücksetzen"
    },

    "optionsInfoSaved": {
        "message": "✔"
    },





    "tabsHeader": {
        "message": "Tabs für die Untersuchung auswählen"
    },

    "tabsScrape": {
        "message": "Tabs untersuchen"
    },

    "tabsRescan": {
        "message": "Tabliste neu laden"
    },

    "tabsCheckAll": {
        "message": "Alle Tabs auswählen"
    },

    "tabsUncheckAll": {
        "message": "Keine Tabs auswählen"
    },

    "downloaderAuto": {
        "message": "Das automatische Herunterladen ohne Nachfrage sollte aktiviert werden, da ansonsten für jedes herunterzuladende Bild ein Speichern-unter-Dialog geöffnet wird."
    },




    "linksHeader": {
        "message": "Bildlinks zum Herunterladen auswählen"
    },

    "downloadPathDescription": {
        "message": "Zielpfad"
    },

    "downloadPathPrefix": {
        "message": "Standard /"
    },

    "linksDownload": {
        "message": "Bilder herunterladen"
    },

    "linksCheckAll": {
        "message": "Alle Links auswählen"
    },

    "linksUncheckAll": {
        "message": "Keine Links auswählen"
    },

    "downloaderRestart": {
        "message": "Neustart"
    },

    "linksNotShown": {
        "message": "Manchmal werden Links nicht direkt erkannt. Normaler Weise reicht es dann, den Vorgang mit einem Klick auf „Neustart“ neu zu starten. Wenn dann immer noch keine Links angezeigt werden, wurden eventuell keine Tabs ausgewählt, oder sie enthalten keine Links zu Bildern auf unterstützten Hostern."
    },




    "downloadHeader": {
        "message": "Bearbeitete Links"
    },

    "downloadClose": {
        "message": "Fenster schließen"
    },

    "downloadRestart": {
        "message": "Noch mal von vorne"
    },




    "variablesHelpOpen": {
        "message": "Platzhalter-Hilfe"
    },

    "variablesHelpHeader": {
        "message": "Platzhalter-Hilfe"
    },

    "variablesHelpIntroduction": {
        "message": "Die Platzhalter in dieser Liste können sowohl für den Pfad zum Herunterladen als auch für die Dateinamensvorlage benutzt werden. Alle Platzhalter werden auf dieselbe Art angegeben (Prozentzeichen, Variablenname, Prozentzeichen). Mehrere Platzhalter – auch mehrfach der gleiche Name – sind möglich. Alle Platzhalter werden direkt vor dem Herunterladen ersetzt."
    },

    "variablesHelpClose": {
        "message": "Platzhalter-Hilfe schließen"
    },

    "variablesHelpTableExample": {
        "message": "Platzhalter"
    },

    "variablesHelpTableDescription": {
        "message": "Beschreibung"
    },

    "variablesHelpVarFull": {
        "message": "Der vollständige Bildname aus der Herunterladefunktion."
    },

    "variablesHelpVarFullImageName": {
        "message": "mein_bild"
    },

    "variablesHelpVarName": {
        "message": "Nur der Namensteil des Bildes."
    },

    "variablesHelpVarSuffix": {
        "message": "Nur die Dateiendung."
    },

    "variablesHelpVarOrder": {
        "message": "Reihenfolge-Nummer des Bildes auf dem Tab, je Tab."
    },

    "variablesHelpVarTabId": {
        "message": "Interne Tab-ID."
    },

    "variablesHelpVarTabTitle": {
        "message": "Titel des Tabs von dem das Bild kommt."
    },

    "variablesHelpVarTabTitleExample": {
        "message": "Mein toller Tabtitel"
    },

    "variablesHelpVarYear": {
        "message": "Aktuelles Jahr beim Starten des Herunterladens."
    },

    "variablesHelpVarMonth": {
        "message": "Aktueller Monat beim Starten des Herunterladens."
    },

    "variablesHelpVarDay": {
        "message": "Aktueller Tag beim Starten des Herunterladens."
    },




    "customHostersInfo": {
        "message": "In einer späteren Version dieser Erweiterung wird es in diesem Dialog möglich sein, eigene Hoster hinzuzufügen."
    },




    "farewellText": {
        "message": "Die Entwicklung dieser Erweiterung wurde am 30. Januar 2021 eingestellt. Die Erweiterung wird so lange funktionieren, wie es keine inkompatiblem API-Änderungen gibt. Die Downloadfunktionalität wird allerdings eingeschränkt sein, wenn die Hoster ihre Seiten verändern. Bei interesse gern den <a href=\"https://gitlab.com/4w/oneclick-downloader\" target=\"_blank\">Quellcode von GitLab laden</a> und an die eigenen Wünsche anpassen."
    }




}
