{


    "appName": {
        "message": "One-click Downloader",
        "description": "The title of the application"
    },
    "appNameShort": {
        "message": "One-click DL", 
        "description":"Short name of the application."
    },

    "appDesc": {
        "message": "Download images from one-click hosting services without external tools or additional 3rd-party software.",
        "description":"The description of the application."
    },




    "optionsTitle": {
        "message": "Options for One-click Downloader",
        "description": "Options title"
    },

    "hostersHeader": {
        "message": "Supported hosters in this version",
        "description": "Header for hosters table."
    },

    "hostersTableName": {
        "message": "Name",
        "description": "Header for name column in hosters table."
    },

    "hostersTableHostname": {
        "message": "Hostname",
        "description": "Header for hostname column in hosters table."
    },

    "hostersTableAuthor": {
        "message": "Author",
        "description": "Header for author column in hosters table."
    },

    "hostersTableModified": {
        "message": "Modified",
        "description": "Header for modified column in hosters table."
    },

    "listHostersButton": {
        "message": "List hosters",
        "description": "Text for list hosters button."
    },

     "customHostersButton": {
        "message": "Custom hosters",
        "description": "Text for custom hosters button."
    },

    "backToOptionsButton": {
        "message": "Back to options",
        "description": "Text for back to options button."
    },




    "optionsPath": {
        "message": "Pre-defined download path",
        "description": "Header for the download path option section"
    },

    "optionsDownloadPathNone": {
        "message": "Download to default download folder",
        "description": "Don’t use a path setting when downloading images."
    },

    "optionsDownloadCustomPathNote": {
        "message": "Relative to dowload default location. Don’t use “../”",
        "description": "Warning for custom download path."
    },

    "optionsDownloadPathRequest": {
        "message": "Show input field for giving a folder name",
        "description": "Request download location."
    },




    "optionsStartupBehavior": {
        "message": "Startup behavior",
        "description": "Header for the startup behavior option section"
    },

    "optionsStartupBehaviorDefault": {
        "message": "App-like startup without any pre-selections",
        "description": "Description for the default startup behavior"
    },

    "optionsStartupBehaviorCurrent": {
        "message": "On startup the currently active tab will be pre-selected",
        "description": "Description for the “current tab” startup behavior"
    },

    "optionsStartupBehaviorLinks": {
        "message": "The links of the current tab will be shown on startup",
        "description": "Description for the “current links” startup behavior"
    },




    "optionsSchemas": {
        "message": "Predefined schemas",
        "description": "Schemas header"
    },

    "optionsFilenameSchemaInfo": {
        "message": "File name schema",
        "description": "File name schema input field label"
    },




    "optionsSave": {
        "message": "Save options",
        "description": "Save button label"
    },

    "optionsReset": {
        "message": "Reset options",
        "description": "Reset button label"
    },

    "optionsInfoSaved": {
        "message": "✔",
        "description": "Save notification (should be an “okay”-like symbol)"
    },




    "tabsHeader": {
        "message": "Select tabs for scraping",
        "description": "Tabs dialog header"
    },

    "tabsScrape": {
        "message": "Scrape tabs",
        "description": "Scrape button label"
    },

    "tabsRescan": {
        "message": "Re-scan tabs",
        "description": "Rescan button label"
    },

    "tabsCheckAll": {
        "message": "Check all tabs",
        "description": "Check all tabs button label"
    },

    "tabsUncheckAll": {
        "message": "Un-check all tabs",
        "description": "Un-check all tabs button label"
    },

    "downloaderAuto": {
        "message": "You should turn on automatic saving of downloads. Otherwise you’ll get a save-as dialog for every download that was initiated by this application.",
        "description": "Information about enabling automatic downloads"
    },




    "linksHeader": {
        "message": "Select image links for downloading",
        "description": "Image link selection header"
    },

    "downloadPathDescription": {
        "message": "Download path",
        "description": "Download path description"
    },

    "downloadPathPrefix": {
        "message": "default /",
        "description": "Download path prefix"
    },

      "linksDownload": {
        "message": "Download images",
        "description": "Download images button label"
    },

    "linksCheckAll": {
        "message": "Check all links",
        "description": "Check all links button label"
    },

    "linksUncheckAll": {
        "message": "Un-check all links",
        "description": "Un-check all links button label"
    },

    "downloaderRestart": {
        "message": "Restart",
        "description": "Restart downloader button label"
    },

    "linksNotShown": {
        "message": "Sometimes links are not recognized properly. Try restarting the download process by hitting the “Restart” button. If there aren’t any links shown after trying to restart then maybe you did not select any tabs or the selected tabs do not contain any links to images at one of the supported one-click hosters.",
        "description": "Restart downloader button label"
    },




    "downloadHeader": {
        "message": "Processed links",
        "description": "Download log header"
    },

    "downloadClose": {
        "message": "Close window",
        "description": "Close button label"
    },

    "downloadRestart": {
        "message": "Start over",
        "description": "Restart button label"
    },




    "variablesHelpOpen": {
        "message": "Variables help",
        "description": "Variables help button"
    },

    "variablesHelpHeader": {
        "message": "Variables Help",
        "description": "Variables help header"
    },

    "variablesHelpIntroduction": {
        "message": "The variables of this list can be used for the download path or the file name scheme. All variables are noted the same way (percent sign, name of the variable, percent sign). Multiple variables – even of the same name – are possible. All variables get parsed right before the download.",
        "description": "Introduction to the variables system"
    },

    "variablesHelpClose": {
        "message": "Close variables help",
        "description": "Variables help close Button"
    },

    "variablesHelpTableExample": {
        "message": "Variable",
        "description": "Variable example column header"
    },

    "variablesHelpTableDescription": {
        "message": "Description",
        "description": "Variable description column header"
    },

    "variablesHelpVarFull": {
        "message": "The full image name as provided from the scraping function.",
        "description": "Description of variable %full%"
    },

    "variablesHelpVarFullImageName": {
        "message": "my_image",
        "description": "The image name for the %full% and %name% variable examples without suffix"
    },

    "variablesHelpVarName": {
        "message": "The name part of the image name only.",
        "description": "Description of variable %name%"
    },

    "variablesHelpVarSuffix": {
        "message": "The image suffix only.",
        "description": "Description of variable %suffix%"
    },

    "variablesHelpVarOrder": {
        "message": "Order of the image on the tab on a per-tab basis.",
        "description": "Description of variable %order%"
    },

    "variablesHelpVarTabId": {
        "message": "Internal tab ID.",
        "description": "Description of variable %tabID%"
    },

    "variablesHelpVarTabTitle": {
        "message": "Title of the tab the image comes from.",
        "description": "Description of variable %tabTitle%"
    },

    "variablesHelpVarTabTitleExample": {
        "message": "My Cool Tab Title",
        "description": "Short example for the %tabTitle% variable"
    },

    "variablesHelpVarYear": {
        "message": "Current year when the download was started.",
        "description": "Description of variable %year%"
    },

    "variablesHelpVarMonth": {
        "message": "Current month when the download was started.",
        "description": "Description of variable %month%"
    },

    "variablesHelpVarDay": {
        "message": "Current day when the download was started.",
        "description": "Description of variable %day%"
    },




    "customHostersInfo": {
        "message": "This dialog will allow you to add custom hosters in a future version of this extension.",
        "description": "Informational text about custom hosters feature"
    },




    "farewellText": {
        "message": "Development of this extension was stopped on January 30, 2021. The extension will function as long as there are no incompatible API changes. The download functionality will be broken when the hosters change their sites. Feel free to get the <a href=\"https://gitlab.com/4w/oneclick-downloader\" target=\"_blank\">sources from GitLab</a> and change the code to fit your needs.",
        "description": "The farewell text"
    }




}
